Make a projection with a SEIR fit — project_seir • covidseir
…
p <- project_seir(m)

#> Warning: `future_options()` is deprecated as of furrr 0.2.0.
#> Please use `furrr_options()` instead.
#> This warning is displayed once every 8 hours.
#> Call `lifecycle::last_warnings()` to see where this warning was generated.
p

#> # A tibble: 4,200 x 7
#>      day data_type    mu y_rep   phi .iteration forecast
#>    <int>     <int> <dbl> <dbl> <dbl>      <int> <lgl>   
#>  1     1         1  1.73     2  10.1          1 FALSE   
#>  2     2         1  1.99     0  10.1          1 FALSE   
#>  3     3         1  2.28     3  10.1          1 FALSE   
#>  4     4         1  2.61     1  10.1          1 FALSE   
#>  5     5         1  3.00     6  10.1          1 FALSE   
#>  6     6         1  3.44     4  10.1          1 FALSE   
#>  7     7         1  3.94     4  10.1          1 FALSE   
#>  8     8         1  4.52     4  10.1          1 FALSE   
#>  9     9         1  5.18     4  10.1          1 FALSE   
#> 10    10         1  5.94     2  10.1          1 FALSE   
#> # … with 4,190 more rows
…
# for parallel processing (optional)
# future::plan(future::multisession)
p <- project_seir(m,
  forecast_days = 100,
  f_fixed_start = 53,
  f_fixed = c(rep(0.7, 60), rep(0.2, 30)),
  iter = 1:25
)
p

#> # A tibble: 3,550 x 8
#>      day data_type    mu y_rep   phi .iteration forecast f_fixed
#>    <int>     <int> <dbl> <dbl> <dbl>      <int> <lgl>    <lgl>  
#>  1     1         1  1.73     2  10.1          1 FALSE    FALSE  
#>  2     2         1  1.99     1  10.1          1 FALSE    FALSE  
#>  3     3         1  2.28     3  10.1          1 FALSE    FALSE  
#>  4     4         1  2.61     2  10.1          1 FALSE    FALSE  
#>  5     5         1  3.00     3  10.1          1 FALSE    FALSE  
#>  6     6         1  3.44     1  10.1          1 FALSE    FALSE  
#>  7     7         1  3.94     5  10.1          1 FALSE    FALSE  
#>  8     8         1  4.52     2  10.1          1 FALSE    FALSE  
#>  9     9         1  5.18     3  10.1          1 FALSE    FALSE  
#> 10    10         1  5.94     6  10.1          1 FALSE    FALSE  
#> # … with 3,540 more rows
…
#>  [1] -12.206996  -9.120015 -12.842758  -9.945963  -7.811543  -6.515639
#>  [7]  -7.816685  -5.760329 -13.761678 -10.993012  -7.416578  -9.105512
#> [13] -17.026427 -12.731450  -8.465330  -6.481328  -6.337543  -7.559904
#> [19]  -8.182519  -7.880885  -6.774119  -8.785315  -9.527219  -8.329275
#> [25] -10.806046  -8.668513  -7.900398 -35.571056  -6.880035  -9.164080
#> [31]  -6.748669  -9.830272  -7.800595  -8.795443  -8.114695 -14.976421
#> [37] -13.397818  -6.696756 -15.460064  -8.028927

states_with_Rt <- get_rt(m)
states_with_Rt

#> # A tibble: 28,900 x 15
#>    .iteration  time      S    E1    E2     I       Q       R     Sd   E1d   E2d
#>         <int> <dbl>  <dbl> <dbl> <dbl> <dbl>   <dbl>   <dbl>  <dbl> <dbl> <dbl>
#>  1          1 -30   1.58e6 0.723 0.181 0.904 4.52e-8 1.81e-7 3.52e6  1.61 0.403
#>  2          1 -29.8 1.58e6 0.828 0.175 0.893 1.10e-2 4.52e-2 3.52e6  1.85 0.391
#>  3          1 -29.5 1.58e6 0.926 0.175 0.881 2.12e-2 9.03e-2 3.52e6  2.06 0.391
#>  4          1 -29.2 1.58e6 1.02  0.180 0.870 3.09e-2 1.35e-1 3.52e6  2.27 0.401
#>  5          1 -29   1.58e6 1.10  0.187 0.862 3.99e-2 1.81e-1 3.52e6  2.46 0.417
#>  6          1 -28.8 1.58e6 1.19  0.196 0.856 4.85e-2 2.26e-1 3.52e6  2.65 0.438
#>  7          1 -28.5 1.58e6 1.27  0.207 0.853 5.65e-2 2.71e-1 3.52e6  2.82 0.462
#>  8          1 -28.2 1.58e6 1.34  0.219 0.853 6.42e-2 3.17e-1 3.52e6  3.00 0.489
#>  9          1 -28   1.58e6 1.42  0.232 0.856 7.14e-2 3.63e-1 3.52e6  3.16 0.517
#> 10          1 -27.8 1.58e6 1.49  0.245 0.862 7.84e-2 4.10e-1 3.52e6  3.33 0.546
#> # … with 28,890 more rows, and 4 more variables: Id <dbl>, Qd <dbl>, Rd <dbl>,
#> #   Rt <dbl>
…
