Fitting COVID-19 case data with covidseir • covidseir
…
dat
#> # A tibble: 176 x 3
#>    value   day date      
#>    <dbl> <int> <date>    
#>  1     1     1 2020-03-01
#>  2     1     2 2020-03-02
#>  3     4     3 2020-03-03
#>  4     6     4 2020-03-04
#>  5     4     5 2020-03-05
#>  6     6     6 2020-03-06
#>  7     1     7 2020-03-07
#>  8     3     8 2020-03-08
#>  9     5     9 2020-03-09
#> 10    11    10 2020-03-10
#> # … with 166 more rows
…
Visualizing the model fit

If you would like, you can choose to use parallel processing for the projections:

future::plan(future::multisession)

Now we will take the fitted model and calculate the corresponding model predictions. This can be slow, especially with future projections, and so we only use the first 50 posterior samples for this quick vignette example:

proj <- covidseir::project_seir(fit, iter = 1:50)
proj
#> # A tibble: 8,800 x 7
#>      day data_type    mu y_rep   phi .iteration forecast
#>    <int>     <int> <dbl> <dbl> <dbl>      <int> <lgl>   
#>  1     1         1  2.21     1  9.35          1 FALSE   
#>  2     2         1  2.55     3  9.35          1 FALSE   
#>  3     3         1  2.93     0  9.35          1 FALSE   
#>  4     4         1  3.38     2  9.35          1 FALSE   
#>  5     5         1  3.89     7  9.35          1 FALSE   
#>  6     6         1  4.47     7  9.35          1 FALSE   
#>  7     7         1  5.15     4  9.35          1 FALSE   
#>  8     8         1  5.93    10  9.35          1 FALSE   
#>  9     9         1  6.82     9  9.35          1 FALSE   
#> 10    10         1  7.85     9  9.35          1 FALSE   
#> # … with 8,790 more rows

Then we will take the posterior samples, re-sample 20 times from the negative binomial observation model to generate smoother predictions, and transform the output into a tidy data frame for plotting:

tidy_proj <- covidseir::tidy_seir(proj, resample_y_rep = 20)
tidy_proj
#> # A tibble: 176 x 15
#> # Groups:   data_type [1]
#>    data_type   day y_rep_0.05 y_rep_0.25 y_rep_mean y_rep_0.50 y_rep_0.75
#>        <int> <int>      <dbl>      <dbl>      <dbl>      <dbl>      <dbl>
#>  1         1     1          0          1       2.79          3          4
#>  2         1     2          0          2       3.01          3          4
#>  3         1     3          1          2       3.46          3          5
#>  4         1     4          1          2       4.02          4          5
#>  5         1     5          1          3       4.74          4          6
#>  6         1     6          1          3       5.23          5          7
#>  7         1     7          2          4       6.05          6          8
#>  8         1     8          2          4       6.90          6          9
#>  9         1     9          2          5       7.99          8         10
#> 10         1    10          3          6       9.10          9         12
#> # … with 166 more rows, and 8 more variables: y_rep_0.95 <dbl>, mu_0.05 <dbl>,
#> #   mu_0.25 <dbl>, mu_mean <dbl>, mu_0.50 <dbl>, mu_0.75 <dbl>, mu_0.95 <dbl>,
#> #   mu_0.5 <dbl>
…
